-------------------------------------------------------------------------------
Test set: com.mkyong.core.GuessGameTest
-------------------------------------------------------------------------------
Tests run: 5, Failures: 0, Errors: 0, Skipped: 1, Time elapsed: 0.075 s - in com.mkyong.core.GuessGameTest
