-------------------------------------------------------------------------------
Test set: com.mkyong.core.CalculatriceTest
-------------------------------------------------------------------------------
Tests run: 10, Failures: 0, Errors: 0, Skipped: 0, Time elapsed: 10.081 s - in com.mkyong.core.CalculatriceTest
